{
  "REDIS_ERROR": {
    "status": "REDIS_ERORR",
    "message": "Database error"
  },
  "NOT_FOUND": {
    "status": "NOT_FOUND",
    "message": "Not found"
  },
  "TWEETS_GET_OK": {
    "status": "TWEETS_GET_OK",
    "message": "Tweets collection"
  }
}